<?xml version="1.0" encoding="UTF-8"?>
<svg width="1440px" height="305px" viewBox="0 0 1440 305" version="1.1" xmlns="http://www.w3.org/2000/svg" xmlns:xlink="http://www.w3.org/1999/xlink">
    <!-- Generator: sketchtool 49.3 (51167) - http://www.bohemiancoding.com/sketch -->
    <title>CF8BDCC3-101F-4A48-8C05-B44597CA2BBE</title>
    <desc>Created with sketchtool.</desc>
    <defs></defs>
    <g id="Page-1" stroke="none" stroke-width="1" fill="none" fill-rule="evenodd" opacity="0.800000012">
        <g id="03_AR-GUIDE-Copy" transform="translate(0.000000, -3978.000000)" fill="#8ADEFF">
            <g id="get-started-now" transform="translate(329.000000, 4008.000000)">
                <polygon id="Rectangle-12" transform="translate(148.500000, 137.500000) scale(-1, 1) translate(-148.500000, -137.500000) " points="119.045455 0 297 0 177.954545 275 0 275"></polygon>
            </g>
        </g>
    </g>
</svg>