<?xml version="1.0" encoding="UTF-8"?>
<svg width="1440px" height="242px" viewBox="0 0 1440 242" version="1.1" xmlns="http://www.w3.org/2000/svg" xmlns:xlink="http://www.w3.org/1999/xlink">
    <!-- Generator: sketchtool 49.3 (51167) - http://www.bohemiancoding.com/sketch -->
    <title>4A8950DB-8B16-48B0-8692-628274D245DE</title>
    <desc>Created with sketchtool.</desc>
    <defs></defs>
    <g id="Page-1" stroke="none" stroke-width="1" fill="none" fill-rule="evenodd">
        <g id="02_AR-collaboration-Copy" transform="translate(0.000000, -800.000000)" fill="#94E5E1">
            <g id="USER-FLOW" transform="translate(274.000000, 883.000000)">
                <rect id="Rectangle-16" x="235" y="0" width="931" height="159"></rect>
            </g>
        </g>
    </g>
</svg>