<?xml version="1.0" encoding="UTF-8"?>
<svg width="1440px" height="305px" viewBox="0 0 1440 305" version="1.1" xmlns="http://www.w3.org/2000/svg" xmlns:xlink="http://www.w3.org/1999/xlink">
    <!-- Generator: sketchtool 49.3 (51167) - http://www.bohemiancoding.com/sketch -->
    <title>F47531B0-73F1-450B-907B-754AE8FCCFED</title>
    <desc>Created with sketchtool.</desc>
    <defs></defs>
    <g id="Page-1" stroke="none" stroke-width="1" fill="none" fill-rule="evenodd" opacity="0.800000012">
        <g id="05_About-Us-Copy" transform="translate(0.000000, -5555.000000)" fill="#44CED3">
            <g id="Group-6" transform="translate(0.000000, 5585.000000)">
                <polygon id="Rectangle-12" transform="translate(477.500000, 137.500000) scale(-1, 1) translate(-477.500000, -137.500000) " points="448.045455 0 626 0 506.954545 275 329 275"></polygon>
            </g>
        </g>
    </g>
</svg>