<?xml version="1.0" encoding="UTF-8"?>
<svg width="1440px" height="682px" viewBox="0 0 1440 682" version="1.1" xmlns="http://www.w3.org/2000/svg" xmlns:xlink="http://www.w3.org/1999/xlink">
    <!-- Generator: Sketch 49.3 (51167) - http://www.bohemiancoding.com/sketch -->
    <title>01_aboutus_01</title>
    <desc>Created with Sketch.</desc>
    <defs></defs>
    <g id="Page-1" stroke="none" stroke-width="1" fill="none" fill-rule="evenodd" opacity="0.797327899">
        <g id="05_About-Us-Copy" transform="translate(0.000000, -800.000000)" fill="#44CED3">
            <g id="Group-7" transform="translate(70.000000, 971.000000)">
                <polygon id="Rectangle-12" transform="translate(275.000000, 255.500000) scale(1, -1) translate(-275.000000, -255.500000) " points="242.123486 0 550 0 307.876514 511 0 511"></polygon>
            </g>
        </g>
    </g>
</svg>