<?xml version="1.0" encoding="UTF-8"?>
<svg width="1440px" height="301px" viewBox="0 0 1440 301" version="1.1" xmlns="http://www.w3.org/2000/svg" xmlns:xlink="http://www.w3.org/1999/xlink">
    <!-- Generator: sketchtool 49.3 (51167) - http://www.bohemiancoding.com/sketch -->
    <title>43EB3341-E684-4B96-9484-88FC55560D54</title>
    <desc>Created with sketchtool.</desc>
    <defs></defs>
    <g id="Page-1" stroke="none" stroke-width="1" fill="none" fill-rule="evenodd" opacity="0.797327899">
        <g id="02_AR-collaboration-Copy" transform="translate(0.000000, -1768.000000)" fill="#94E5E1">
            <g id="KEY-FEATURES" transform="translate(167.000000, 1850.000000)">
                <polygon id="Rectangle-12" points="683.746682 0 850 0 719.253318 220 553 220"></polygon>
            </g>
        </g>
    </g>
</svg>