<?xml version="1.0" encoding="UTF-8"?>
<svg width="1440px" height="242px" viewBox="0 0 1440 242" version="1.1" xmlns="http://www.w3.org/2000/svg" xmlns:xlink="http://www.w3.org/1999/xlink">
    <!-- Generator: sketchtool 49.3 (51167) - http://www.bohemiancoding.com/sketch -->
    <title>88365FC3-CB2E-4115-9837-27199950C3CC</title>
    <desc>Created with sketchtool.</desc>
    <defs></defs>
    <g id="Page-1" stroke="none" stroke-width="1" fill="none" fill-rule="evenodd">
        <g id="06_Contact-US-Copy" transform="translate(0.000000, -412.000000)" fill="#44CED3">
            <rect id="Rectangle-16" x="509" y="495" width="931" height="159"></rect>
        </g>
    </g>
</svg>