<?xml version="1.0" encoding="UTF-8"?>
<svg width="102px" height="73px" viewBox="0 0 102 73" version="1.1" xmlns="http://www.w3.org/2000/svg" xmlns:xlink="http://www.w3.org/1999/xlink">
    <!-- Generator: Sketch 49.3 (51167) - http://www.bohemiancoding.com/sketch -->
    <title>icon_colla_functions_01</title>
    <desc>Created with Sketch.</desc>
    <defs>
        <rect id="path-1" x="0" y="45" width="43" height="3" rx="1.5"></rect>
    </defs>
    <g id="Page-1" stroke="none" stroke-width="1" fill="none" fill-rule="evenodd">
        <g id="02_AR-collaboration" transform="translate(-299.000000, -3664.000000)">
            <g id="KEY-FUNCTIONS" transform="translate(215.000000, 3435.000000)">
                <g id="icon" transform="translate(0.000000, 236.000000)">
                    <g id="icon_features_drawing" transform="translate(112.000000, 6.000000)">
                        <path d="M17.5858083,32.4661325 L36.8925454,13.9870297 L30.8663193,8.21584029 L11.5595823,26.6949431 L17.5858083,32.4661325 Z" id="Fill-2" stroke="#2F2F2F" stroke-width="4"></path>
                        <path d="M44.6426596,9.36363933 C46.0429255,8.01722255 46.0429255,5.86142374 44.6426596,4.51330479 L40.9984119,1.01108921 C39.5981459,-0.337029738 37.2154711,-0.337029738 35.9547872,1.01108921 L44.6426596,9.36363933 Z" id="Fill-3" fill="#2F2F2F"></path>
                        <path d="M4.05503267,38.3562472 C3.91456155,38.7605126 4.05503267,39.163927 4.33508587,39.433721 C4.47555699,39.5681925 4.75561018,39.703515 5.03566337,39.703515 L5.45618769,39.703515 L15.9657394,36.0651258 L7.8379734,28.2496105 L4.05503267,38.3562472 Z" id="Fill-6" fill="#2F2F2F"></path>
                        <g id="Rectangle-4">
                            <use fill="#2F2F2F" fill-rule="evenodd" xlink:href="#path-1"></use>
                            <rect stroke="#2F2F2F" stroke-width="1" x="-0.5" y="44.5" width="44" height="4" rx="2"></rect>
                        </g>
                        <polygon id="Path-2" fill="#2F2F2F" points="34.163652 2.50909599 32.0215905 4.56838662 40.7918949 12.8902676 42.9490499 10.7800972"></polygon>
                    </g>
                </g>
            </g>
        </g>
    </g>
</svg>