<?xml version="1.0" encoding="UTF-8"?>
<svg width="159px" height="154px" viewBox="0 0 159 154" version="1.1" xmlns="http://www.w3.org/2000/svg" xmlns:xlink="http://www.w3.org/1999/xlink">
    <!-- Generator: sketchtool 49.3 (51167) - http://www.bohemiancoding.com/sketch -->
    <title>CD535B10-6E1F-48BA-BF38-C66C892772C3</title>
    <desc>Created with sketchtool.</desc>
    <defs></defs>
    <g id="Page-1" stroke="none" stroke-width="1" fill="none" fill-rule="evenodd">
        <g id="03_AR-GUIDE" transform="translate(-382.000000, -1226.000000)">
            <g id="we-offer-you-" transform="translate(292.000000, 1000.000000)">
                <g id="01" transform="translate(90.000000, 226.000000)">
                    <ellipse id="Oval" fill="#8ADEFF" cx="79.5" cy="77" rx="79.5" ry="77"></ellipse>
                    <g id="PHONE" transform="translate(105.000000, 54.000000)">
                        <path d="M31,42.0296644 C31,44.2229857 29.2453189,46 27.0795629,46 L3.92234023,46 C1.7565842,46 0,44.2229857 0,42.0296644 L0,3.96840826 C0,1.77701429 1.7565842,0 3.92234023,0 L27.0795629,0 C29.2453189,0 31,1.77701429 31,3.96840826 L31,42.0296644 Z" id="Fill-1041" fill="#F2F2F2"></path>
                        <path d="M27.2351733,3.97033561 L27.2351733,42.0315917 C27.2351733,44.2229857 25.3394095,46 23,46 L26.7668806,46 C29.1062901,46 31,44.2229857 31,42.0315917 L31,3.97033561 C31,1.77701429 29.1062901,0 26.7668806,0 L23,0 C25.3394095,0 27.2351733,1.77701429 27.2351733,3.97033561" id="Fill-1043" fill="#FFFFFF"></path>
                        <path d="M31,42.0296644 C31,44.2229857 29.2453189,46 27.0795629,46 L3.92234023,46 C1.7565842,46 0,44.2229857 0,42.0296644 L0,3.96840826 C0,1.77701429 1.7565842,0 3.92234023,0 L27.0795629,0 C29.2453189,0 31,1.77701429 31,3.96840826 L31,42.0296644 Z" id="Stroke-1044" stroke="#000000" stroke-linecap="round" stroke-linejoin="round"></path>
                        <polygon id="Fill-1045" fill="#FFFFFF" points="0 39 31 39 31 5 0 5"></polygon>
                        <polygon id="Fill-1047" fill="#FFFFFF" points="28 39 31 39 31 5 28 5"></polygon>
                        <polygon id="Stroke-1048" stroke="#000000" stroke-linecap="round" stroke-linejoin="round" points="0 39 31 39 31 5 0 5"></polygon>
                        <path d="M18,42.5054217 C18,43.3259036 17.3245033,44 16.5027092,44 C15.6736905,44 15,43.3259036 15,42.5054217 C15,41.6740964 15.6736905,41 16.5027092,41 C17.3245033,41 18,41.6740964 18,42.5054217" id="Fill-1049" fill="#000000"></path>
                        <path d="M9,33 L23,33" id="Stroke-1050" stroke="#000000" stroke-linecap="round" stroke-linejoin="round"></path>
                        <path d="M23,18.0019847 C23,21.8661752 19.8661752,25 16.0019847,25 C12.1338248,25 9,21.8661752 9,18.0019847 C9,14.1318401 12.1338248,11 16.0019847,11 C19.8661752,11 23,14.1318401 23,18.0019847" id="Fill-1051" fill="#D6F3FF"></path>
                        <path d="M23,18.0019847 C23,21.8661752 19.8661752,25 16.0019847,25 C12.1338248,25 9,21.8661752 9,18.0019847 C9,14.1318401 12.1338248,11 16.0019847,11 C19.8661752,11 23,14.1318401 23,18.0019847 Z" id="Stroke-1054" stroke="#000000"></path>
                    </g>
                    <g id="Group-12" transform="translate(73.000000, 72.000000)" stroke="#000000" stroke-linecap="square">
                        <path d="M0.5,11.5 L21.5,11.5" id="Line"></path>
                        <path d="M6.5,1.5 L21.5,1.5" id="Line-Copy"></path>
                        <path d="M3.5,6.5 L21.5,6.5" id="Line-Copy-2"></path>
                    </g>
                    <g id="Group-10" transform="translate(25.000000, 62.000000)" stroke="#303C42" stroke-linecap="round" stroke-linejoin="round">
                        <path d="M0,5 L0,1.875 C0,0.83875 0.84,0 1.875,0 L5,0" id="Stroke-196"></path>
                        <path d="M5,30 L1.875,30 C0.84,30 0,29.16125 0,28.125 L0,25" id="Stroke-198"></path>
                        <path d="M42,25 L42,28.125 C42,29.16125 41.16,30 40.125,30 L37,30" id="Stroke-200"></path>
                        <path d="M37,0 L40.125,0 C41.16,0 42,0.83875 42,1.875 L42,5" id="Stroke-202"></path>
                    </g>
                    <g id="Group-8" transform="translate(34.000000, 67.000000)">
                        <path d="M5.61696994,19 L1.11712074,19 C0.497034282,19 0,18.4929414 0,17.8634049 L0,1.13537033 C0,0.507058596 0.497034282,0 1.11712074,0 L22.8840857,0 C23.5005529,0 24,0.507058596 24,1.13537033 L24,17.8634049 C24,18.4929414 23.5005529,19 22.8840857,19 L17.3744848,19 L5.61696994,19 Z" id="Fill-574" fill="#FFFFFF"></path>
                        <path d="M17,6.49936176 C17,7.88052081 15.8782542,9 14.5,9 C13.1217458,9 12,7.88052081 12,6.49936176 C12,5.11820271 13.1217458,4 14.5,4 C15.8782542,4 17,5.11820271 17,6.49936176 Z" id="Stroke-579" stroke="#000000" stroke-linecap="round" stroke-linejoin="round"></path>
                        <path d="M0,10.8849018 L0,17.833156 C0,18.4794468 0.501050304,19 1.12614704,19 L5.66235489,19 L17.5148701,19 L22,19 L6.00287452,6 L0,10.8849018 Z" id="Fill-581" fill="#FFFFFF"></path>
                        <path d="M21.7712992,19 L22.8566333,19 C23.4888188,19 24,18.5001725 24,17.8796137 L24,5 L15,13.7976889 L21.7712992,19 Z" id="Stroke-584" stroke="#000000" stroke-linecap="round" stroke-linejoin="round"></path>
                        <path d="M0,10.8849018 L0,17.833156 C0,18.4794468 0.501050304,19 1.12614704,19 L5.66235489,19 L17.5148701,19 L22,19 L5.66235489,6.83512392 L0,10.8849018 Z" id="Stroke-585" stroke="#000000" stroke-linecap="round" stroke-linejoin="round"></path>
                        <path d="M5.61696994,19 L1.11712074,19 C0.497034282,19 0,18.4929414 0,17.8634049 L0,1.13537033 C0,0.507058596 0.497034282,0 1.11712074,0 L22.8840857,0 C23.5005529,0 24,0.507058596 24,1.13537033 L24,17.8634049 C24,18.4929414 23.5005529,19 22.8840857,19 L17.3744848,19 L5.61696994,19 Z" id="Stroke-577" stroke="#000000" stroke-linecap="round" stroke-linejoin="round"></path>
                    </g>
                </g>
            </g>
        </g>
    </g>
</svg>