<?xml version="1.0" encoding="UTF-8"?>
<svg width="102px" height="73px" viewBox="0 0 102 73" version="1.1" xmlns="http://www.w3.org/2000/svg" xmlns:xlink="http://www.w3.org/1999/xlink">
    <!-- Generator: sketchtool 49.3 (51167) - http://www.bohemiancoding.com/sketch -->
    <title>81C90214-0697-4B16-B256-F796D91ABDA4</title>
    <desc>Created with sketchtool.</desc>
    <defs>
        <path d="M53.1671248,35.3877554 L48.8129046,45.3334068 C48.4983998,46.0834413 47.7335302,46.3874528 47.1045205,46.0124356 C46.8580916,45.865514 46.6582736,45.62725 46.5350592,45.3334068 L44.5731039,40.6082772 C43.375893,40.8891198 42.1277219,41.037673 40.8448544,41.037673 L29.9789868,41.037673 C20.9980734,41.037673 13.7176046,33.7572042 13.7176046,24.7762908 C13.7176046,15.7953775 20.9980734,8.51490866 29.9789868,8.51490866 L40.8448544,8.51490866 C49.8257677,8.51490866 57.1062365,15.7953775 57.1062365,24.7762908 C57.1062365,28.8313238 55.6219864,32.5396915 53.1671248,35.3877554 Z" id="path-1"></path>
    </defs>
    <g id="Page-1" stroke="none" stroke-width="1" fill="none" fill-rule="evenodd">
        <g id="02_AR-collaboration" transform="translate(-669.000000, -3664.000000)">
            <g id="KEY-FUNCTIONS" transform="translate(215.000000, 3435.000000)">
                <g id="icon" transform="translate(0.000000, 236.000000)">
                    <g id="icon_features_chatting" transform="translate(475.000000, 0.000000)">
                        <path d="M15.4250645,45.9286465 L13.6155328,50.3088646 C13.5022188,50.5804726 13.3184565,50.8007071 13.0918284,50.9365111 C12.5133605,51.2831506 11.8099492,51.0021437 11.5207152,50.3088646 L7.24711378,40.7718475 C5.15025496,38.1878882 3.89376346,34.8943355 3.89376346,31.3073134 C3.89376346,23.0059891 10.6233164,16.2764361 18.9246407,16.2764361 L28.7651843,16.2764361 C37.0665086,16.2764361 43.7960616,23.0059891 43.7960616,31.3073134 C43.7960616,39.6086377 37.0665086,46.3381907 28.7651843,46.3381907 L18.9246407,46.3381907 C17.7197456,46.3381907 16.5479631,46.1964188 15.4250645,45.9286465 Z" id="Combined-Shape" stroke="#2F2F2F" stroke-width="4"></path>
                        <mask id="mask-2" fill="white">
                            <use xlink:href="#path-1"></use>
                        </mask>
                        <use id="Combined-Shape" stroke="#2F2F2F" stroke-width="4" fill="#FFFFFF" xlink:href="#path-1"></use>
                        <ellipse id="Oval" fill="#2F2F2F" mask="url(#mask-2)" cx="45.1273428" cy="24.7758705" rx="2.54677809" ry="2.56764156"></ellipse>
                        <ellipse id="Oval-Copy-2" fill="#2F2F2F" mask="url(#mask-2)" cx="34.9404157" cy="24.7758705" rx="2.54677809" ry="2.56764156"></ellipse>
                        <ellipse id="Oval-Copy-2" fill="#2F2F2F" mask="url(#mask-2)" cx="24.7534886" cy="24.7758705" rx="2.54677809" ry="2.56764156"></ellipse>
                        <rect id="Rectangle-6-Copy" fill="#26D4FF" opacity="0" x="0" y="0" width="60" height="60"></rect>
                    </g>
                </g>
            </g>
        </g>
    </g>
</svg>