<?xml version="1.0" encoding="UTF-8"?>
<svg width="102px" height="73px" viewBox="0 0 102 73" version="1.1" xmlns="http://www.w3.org/2000/svg" xmlns:xlink="http://www.w3.org/1999/xlink">
    <!-- Generator: Sketch 49.3 (51167) - http://www.bohemiancoding.com/sketch -->
    <title>icon_arguide_features_03</title>
    <desc>Created with Sketch.</desc>
    <defs></defs>
    <g id="Page-1" stroke="none" stroke-width="1" fill="none" fill-rule="evenodd">
        <g id="03_AR-GUIDE" transform="translate(-299.000000, -2817.000000)" stroke="#2F2F2F" stroke-width="4">
            <g id="key-features-" transform="translate(215.000000, 2310.000000)">
                <g id="Group-2" transform="translate(0.000000, 244.000000)">
                    <g id="Group-21" transform="translate(112.000000, 277.000000)">
                        <rect id="Rectangle-26" x="2" y="2" width="42" height="42" rx="2"></rect>
                        <rect id="Rectangle-26" x="2" y="22" width="22" height="22" rx="2"></rect>
                    </g>
                </g>
            </g>
        </g>
    </g>
</svg>