<?xml version="1.0" encoding="UTF-8"?>
<svg width="102px" height="73px" viewBox="0 0 102 73" version="1.1" xmlns="http://www.w3.org/2000/svg" xmlns:xlink="http://www.w3.org/1999/xlink">
    <!-- Generator: Sketch 49.3 (51167) - http://www.bohemiancoding.com/sketch -->
    <title>icon_arguide_features_04</title>
    <desc>Created with Sketch.</desc>
    <defs>
        <rect id="path-1" x="40" y="31" width="3" height="3"></rect>
        <rect id="path-2" x="19" y="0" width="3" height="3"></rect>
        <rect id="path-3" x="4" y="4" width="25" height="18" rx="0.5"></rect>
        <rect id="path-4" x="30" y="0" width="3" height="3"></rect>
        <rect id="path-5" x="0" y="0" width="3" height="3"></rect>
        <rect id="path-6" x="30" y="22" width="3" height="3"></rect>
        <rect id="path-7" x="0" y="22" width="3" height="3"></rect>
    </defs>
    <g id="Page-1" stroke="none" stroke-width="1" fill="none" fill-rule="evenodd">
        <g id="03_AR-GUIDE" transform="translate(-669.000000, -2817.000000)">
            <g id="key-features-" transform="translate(215.000000, 2310.000000)">
                <g id="Group-2" transform="translate(0.000000, 244.000000)">
                    <g id="Group-18" transform="translate(479.000000, 279.000000)">
                        <g id="Group" transform="translate(11.000000, 0.000000)">
                            <polygon id="Triangle-4" stroke="#2F2F2F" stroke-width="4" fill="#FFFFFF" points="20 1 40 32 0 32"></polygon>
                            <g id="Path">
                                <use fill="#FFFFFF" fill-rule="evenodd" xlink:href="#path-1"></use>
                                <rect stroke="#2F2F2F" stroke-width="4" x="38" y="29" width="7" height="7"></rect>
                            </g>
                            <g id="Path">
                                <use fill="#FFFFFF" fill-rule="evenodd" xlink:href="#path-2"></use>
                                <rect stroke="#2F2F2F" stroke-width="4" x="17" y="-2" width="7" height="7"></rect>
                            </g>
                        </g>
                        <g id="Group-7" transform="translate(0.000000, 17.000000)">
                            <g id="Rectangle-21">
                                <use fill="#FFFFFF" fill-rule="evenodd" xlink:href="#path-3"></use>
                                <rect stroke="#2F2F2F" stroke-width="4" x="2" y="2" width="29" height="22" rx="0.5"></rect>
                            </g>
                            <g id="Rectangle-22">
                                <use fill="#FFFFFF" fill-rule="evenodd" xlink:href="#path-4"></use>
                                <rect stroke="#2F2F2F" stroke-width="4" x="28" y="-2" width="7" height="7"></rect>
                            </g>
                            <g id="Rectangle-22">
                                <use fill="#FFFFFF" fill-rule="evenodd" xlink:href="#path-5"></use>
                                <rect stroke="#2F2F2F" stroke-width="4" x="-2" y="-2" width="7" height="7"></rect>
                            </g>
                            <g id="Rectangle-22">
                                <use fill="#FFFFFF" fill-rule="evenodd" xlink:href="#path-6"></use>
                                <rect stroke="#2F2F2F" stroke-width="4" x="28" y="20" width="7" height="7"></rect>
                            </g>
                            <g id="Rectangle-22">
                                <use fill="#FFFFFF" fill-rule="evenodd" xlink:href="#path-7"></use>
                                <rect stroke="#2F2F2F" stroke-width="4" x="-2" y="20" width="7" height="7"></rect>
                            </g>
                        </g>
                    </g>
                </g>
            </g>
        </g>
    </g>
</svg>