<?xml version="1.0" encoding="utf-8"?>
<!-- Generator: Adobe Illustrator 22.1.0, SVG Export Plug-In . SVG Version: 6.00 Build 0)  -->
<svg version="1.1" id="Layer_1" xmlns="http://www.w3.org/2000/svg" xmlns:xlink="http://www.w3.org/1999/xlink" x="0px" y="0px"
	 viewBox="0 0 988 499" style="enable-background:new 0 0 988 499;" xml:space="preserve">
<style type="text/css">
	.st0{fill:#646464;}
	.st1{font-family:'Open Sans', sans-serif;}
	.st2{font-size:32px;}
	.st3{fill:#94E5E1;}
	.st4{fill:#F2F2F2;}
	.st5{fill:#E2E2E2;}
	.st6{fill:#FFFFFF;}
	.st7{fill:none;stroke:#000000;stroke-linecap:round;stroke-linejoin:round;}
	.st8{fill:#FCFCFC;}
	.st9{fill:#F1F2F2;}
	.st10{fill:#D6F3FF;stroke:#000000;}
	.st11{fill:#2F2F2F;}
	.st12{font-family:'OpenSans-Bold';}
	.st13{font-size:11px;}
	.st14{fill:none;stroke:#2F2F2F;}
	.st15{fill:#FFFFFF;stroke:#2F2F2F;}
	.st16{fill:none;stroke:#000000;}
	.st17{fill:none;stroke:#2F2F2F;stroke-linecap:square;}
	.st18{fill:#FFFFFF;stroke:#303C42;stroke-linecap:round;stroke-linejoin:round;}
	.st19{fill:#94E5E1;stroke:#303C42;stroke-linecap:round;stroke-linejoin:round;}
	.st20{fill:url(#Triangle-5_1_);}
	.st21{fill:none;}
	.st22{font-size:17px;}
</style>
<title>img_colla_svg_userflow_ko</title>
<desc>Created with Sketch.</desc>
<g id="Page-1">
	<g id="_x30_2_x5F_AR-collaboration" transform="translate(-233.000000, -1168.000000)">
		<g id="USER-FLOW" transform="translate(211.000000, 883.000000)">
			<g id="img_colla_svg_userflow_ko" transform="translate(0.000000, 236.000000)">
				<text transform="matrix(1 0 0 1 154.3013 545)" class="st0 st1 st2">그 자리에서 원거리의 동료와 함께 문제를 해결합니다.</text>
				<g id="원거리의-동료에게-영상통화를-겁니다.-copy" transform="translate(408.000000, 0.000000)">
				</g>
				<g id="Group-3" transform="translate(0.000000, 49.000000)">
					<g id="_x30_4" transform="translate(838.000000, 0.000000)">
						<ellipse id="Oval-Copy-3" class="st3" cx="79.5" cy="77" rx="79.5" ry="77"/>
						<g id="Group-10" transform="translate(32.000000, 55.000000)">
							<g id="Group-13" transform="translate(72.000000, 1.000000)">
								<path id="Fill-1021" class="st4" d="M23,35.6c0,1.9-1.5,3.4-3.3,3.4H3.3C1.5,39,0,37.5,0,35.6V3.4C0,1.5,1.5,0,3.3,0h16.4
									C21.5,0,23,1.5,23,3.4V35.6z"/>
								<path id="Fill-1023" class="st5" d="M2.7,35.6V3.4C2.7,1.5,4,0,5.8,0H3.1C1.4,0,0,1.5,0,3.4v32.3C0,37.5,1.4,39,3.1,39h2.7
									C4,39,2.7,37.5,2.7,35.6"/>
								<path id="Fill-1025" class="st6" d="M20.3,3.4v32.3c0,1.9-1.4,3.4-3.1,3.4h2.7c1.7,0,3.1-1.5,3.1-3.4V3.4
									C23,1.5,21.6,0,19.9,0h-2.7C19,0,20.3,1.5,20.3,3.4"/>
								<path id="Stroke-1027" class="st7" d="M23,35.6c0,1.9-1.5,3.4-3.3,3.4H3.3C1.5,39,0,37.5,0,35.6V3.4C0,1.5,1.5,0,3.3,0h16.4
									C21.5,0,23,1.5,23,3.4V35.6z"/>
								<path id="Fill-1029" d="M13.8,35c0,0.9-0.8,1.7-1.7,1.7c-1,0-1.7-0.8-1.7-1.7s0.8-1.7,1.7-1.7S13.8,34,13.8,35"/>
								<polygon id="Fill-1031" class="st6" points="0,32.4 23,32.4 23,6 0,6 								"/>
								<polygon id="Fill-1034" class="st6" points="20.7,32.1 23,32.1 23,5.7 20.7,5.7 								"/>
								<polygon id="Stroke-1035" class="st7" points="0,32.1 23,32.1 23,5.7 0,5.7 								"/>
								<path id="Stroke-1036" class="st7" d="M6.9,26.4h10.4"/>
								<path id="Fill-1037" class="st8" d="M17.2,15.5c0,2.9-2.3,5.2-5.2,5.2s-5.2-2.3-5.2-5.2s2.3-5.2,5.2-5.2
									S17.2,12.6,17.2,15.5"/>
								<path id="Fill-1038" class="st6" d="M11.3,10.3c-0.3,0-0.7,0-1,0.1c2.2,0.5,3.8,2.6,3.8,5.1s-1.6,4.6-3.8,5.1
									c0.3,0.1,0.6,0.1,1,0.1c2.6,0,4.8-2.3,4.8-5.2S14,10.3,11.3,10.3"/>
								<path id="Fill-1039" class="st9" d="M11.7,20.6c0.3,0,0.7,0,1-0.1c-2.2-0.5-3.8-2.5-3.8-5s1.6-4.6,3.8-5.1
									c-0.3-0.1-0.6-0.1-1-0.1c-2.6,0-4.8,2.3-4.8,5.2C6.9,18.3,9,20.6,11.7,20.6"/>
								<path id="Stroke-1040" class="st10" d="M16.4,15.2c0,2.9-2.3,5.2-5.2,5.2S6,18,6,15.2c0-2.9,2.3-5.2,5.2-5.2
									S16.4,12.3,16.4,15.2z"/>
							</g>
							<g id="Group-9">
								<g id="Group-8" transform="translate(0.000000, 17.000000)">
									<path id="Fill-574" class="st6" d="M5.6,19H1.1C0.5,19,0,18.5,0,17.9V1.1C0,0.5,0.5,0,1.1,0h21.8C23.5,0,24,0.5,24,1.1
										v16.7c0,0.6-0.5,1.1-1.1,1.1h-5.5L5.6,19L5.6,19z"/>
									<path id="Stroke-579" class="st7" d="M17,6.5C17,7.9,15.9,9,14.5,9S12,7.9,12,6.5S13.1,4,14.5,4S17,5.1,17,6.5z"/>
									<path id="Fill-581" class="st6" d="M0,10.9v6.9C0,18.5,0.5,19,1.1,19h4.5h11.9H22L6,6L0,10.9z"/>
									<path id="Stroke-584" class="st7" d="M21.8,19h1.1c0.6,0,1.1-0.5,1.1-1.1V5l-9,8.8L21.8,19z"/>
									<path id="Stroke-585" class="st7" d="M0,10.9v6.9C0,18.5,0.5,19,1.1,19h4.5h11.9H22L5.7,6.8L0,10.9z"/>
									<path id="Stroke-577" class="st7" d="M5.6,19H1.1C0.5,19,0,18.5,0,17.9V1.1C0,0.5,0.5,0,1.1,0h21.8C23.5,0,24,0.5,24,1.1
										v16.7c0,0.6-0.5,1.1-1.1,1.1h-5.5L5.6,19L5.6,19z"/>
								</g>
								<text transform="matrix(1 0 0 1 1 12)" class="st11 st12 st13">ABC</text>
							</g>
							<path id="Fill-1" class="st11" d="M34.9,14.2c-0.2-0.2-0.5-0.2-0.7,0s-0.2,0.5,0,0.7l6.7,7.2l-6.7,7.2
								c-0.2,0.2-0.2,0.5,0,0.7s0.5,0.2,0.7,0l7-7.5c0.2-0.2,0.2-0.5,0-0.7L34.9,14.2z"/>
							<path id="Fill-1_1_" class="st11" d="M43.9,14.2c-0.2-0.2-0.5-0.2-0.7,0s-0.2,0.5,0,0.7l6.7,7.2l-6.7,7.2
								c-0.2,0.2-0.2,0.5,0,0.7s0.5,0.2,0.7,0l7-7.5c0.2-0.2,0.2-0.5,0-0.7L43.9,14.2z"/>
							<path id="Fill-1_2_" class="st11" d="M53.9,14.2c-0.2-0.2-0.5-0.2-0.7,0s-0.2,0.5,0,0.7l6.7,7.2l-6.7,7.2
								c-0.2,0.2-0.2,0.5,0,0.7s0.5,0.2,0.7,0l7-7.5c0.2-0.2,0.2-0.5,0-0.7L53.9,14.2z"/>
						</g>
					</g>
					<g id="_x30_3" transform="translate(566.000000, 0.000000)">
						<ellipse id="Oval-Copy-2" class="st3" cx="79.5" cy="77" rx="79.5" ry="77"/>
						<path id="Path-4" class="st14" d="M37.1,72.6c14.3,1.2,21.7,3.1,22.1,5.7c0.6,3.9-13.8,5.2-13.1,8.5s12.3,6,21.1,7
							c5.9,0.6,12.4,1.2,19.5,1.6"/>

							<g id="icon_features_drawing" transform="translate(100.460823, 71.753716) rotate(-15.000000) translate(-100.460823, -71.753716) translate(79.460823, 51.753716)">
							<g id="Fill-2">
								<g>
									<polygon id="path-1" class="st6" points="13.6,35.2 4.7,26.7 26.9,5.4 35.8,14 									"/>
								</g>
								<path class="st14" d="M13.6,34.5L35.1,14l-8.2-7.8L5.4,26.7L13.6,34.5z"/>
							</g>
							<g id="Fill-3">
								<g>
									<path id="path-2" class="st6" d="M40.6,9.4C42,8,42,5.9,40.6,4.5L37,1c-1.4-1.3-3.8-1.3-5,0L40.6,9.4z"/>
								</g>
								<path class="st14" d="M40.6,8.6c0.9-1.1,0.8-2.7-0.3-3.8l-3.6-3.5c-1.1-1-2.8-1.1-4-0.3L40.6,8.6z"/>
							</g>
							<g id="Fill-6">
								<g>
									<path id="path-3" class="st6" d="M0.1,38.4c-0.1,0.4,0,0.8,0.3,1.1c0.1,0.1,0.4,0.3,0.7,0.3h0.4L12,36.1l-8.1-7.8L0.1,38.4
										z"/>
								</g>
								<path class="st14" d="M0.5,38.5c-0.1,0.2,0,0.4,0.2,0.5c0.1,0.1,0.2,0.1,0.4,0.1h0.3l9.7-3.3l-7-6.7L0.5,38.5z"/>
							</g>
							<polygon id="Path-2" class="st15" points="30.8,2.5 28.6,4.6 36.7,12.5 38.9,10.4 							"/>
						</g>
					</g>
					<g id="_x30_2" transform="translate(294.000000, 0.000000)">
						<ellipse id="Oval-Copy" class="st3" cx="79.5" cy="77" rx="79.5" ry="77"/>
						<g id="Group-6" transform="translate(31.000000, 54.000000)">
							<g id="PHONE">
								<path id="Fill-1041" class="st4" d="M31,42c0,2.2-1.8,4-3.9,4H3.9C1.8,46,0,44.2,0,42V4c0-2.2,1.8-4,3.9-4h23.2
									C29.2,0,31,1.8,31,4V42z"/>
								<path id="Fill-1043" class="st6" d="M27.2,4v38c0,2.2-1.9,4-4.2,4h3.8c2.3,0,4.2-1.8,4.2-4V4c0-2.2-1.9-4-4.2-4H23
									C25.3,0,27.2,1.8,27.2,4"/>
								<path id="Stroke-1044" class="st7" d="M31,42c0,2.2-1.8,4-3.9,4H3.9C1.8,46,0,44.2,0,42V4c0-2.2,1.8-4,3.9-4h23.2
									C29.2,0,31,1.8,31,4V42z"/>
								<polygon id="Fill-1045" class="st6" points="0,39 31,39 31,5 0,5 								"/>
								<polygon id="Fill-1047" class="st6" points="28,39 31,39 31,5 28,5 								"/>
								<polygon id="Stroke-1048" class="st7" points="0,39 31,39 31,5 0,5 								"/>
								<path id="Fill-1049" d="M18,42.5c0,0.8-0.7,1.5-1.5,1.5c-0.8,0-1.5-0.7-1.5-1.5s0.7-1.5,1.5-1.5C17.3,41,18,41.7,18,42.5"/>
								<path id="Stroke-1050" class="st7" d="M9,33h14"/>
								<path id="Fill-1051" class="st3" d="M23,18c0,3.9-3.1,7-7,7s-7-3.1-7-7s3.1-7,7-7S23,14.1,23,18"/>
								<path id="Stroke-1054" class="st16" d="M23,18c0,3.9-3.1,7-7,7s-7-3.1-7-7s3.1-7,7-7S23,14.1,23,18z"/>
							</g>
							<g id="Group-5" transform="translate(36.000000, 20.000000)">
								<path id="Line" class="st17" d="M0.5,1.5h3"/>
								<path id="Line-Copy-2" class="st17" d="M14.5,1.5h3"/>
								<path id="Line-Copy" class="st17" d="M7.5,1.5h3"/>
								<path id="Line-Copy-3" class="st17" d="M21.5,1.5h3"/>
							</g>
							<g id="PHONE-Copy" transform="translate(66.000000, 0.000000)">
								<path id="Fill-1041_1_" class="st4" d="M31,42c0,2.2-1.8,4-3.9,4H3.9C1.8,46,0,44.2,0,42V4c0-2.2,1.8-4,3.9-4h23.2
									C29.2,0,31,1.8,31,4V42z"/>
								<path id="Fill-1043_1_" class="st6" d="M27.2,4v38c0,2.2-1.9,4-4.2,4h3.8c2.3,0,4.2-1.8,4.2-4V4c0-2.2-1.9-4-4.2-4H23
									C25.3,0,27.2,1.8,27.2,4"/>
								<path id="Stroke-1044_1_" class="st7" d="M31,42c0,2.2-1.8,4-3.9,4H3.9C1.8,46,0,44.2,0,42V4c0-2.2,1.8-4,3.9-4h23.2
									C29.2,0,31,1.8,31,4V42z"/>
								<polygon id="Fill-1045_1_" class="st6" points="0,39 31,39 31,5 0,5 								"/>
								<polygon id="Fill-1047_1_" class="st6" points="28,39 31,39 31,5 28,5 								"/>
								<polygon id="Stroke-1048_1_" class="st7" points="0,39 31,39 31,5 0,5 								"/>
								<path id="Fill-1049_1_" d="M18,42.5c0,0.8-0.7,1.5-1.5,1.5c-0.8,0-1.5-0.7-1.5-1.5s0.7-1.5,1.5-1.5C17.3,41,18,41.7,18,42.5
									"/>
								<path id="Stroke-1050_1_" class="st7" d="M9,33h14"/>
								<path id="Fill-1051_1_" class="st3" d="M23,18c0,3.9-3.1,7-7,7s-7-3.1-7-7s3.1-7,7-7S23,14.1,23,18"/>
								<path id="Stroke-1054_1_" class="st16" d="M23,18c0,3.9-3.1,7-7,7s-7-3.1-7-7s3.1-7,7-7S23,14.1,23,18z"/>
							</g>
						</g>
					</g>
					<g id="_x30_1" transform="translate(22.000000, 0.000000)">
						<ellipse id="Oval" class="st3" cx="79.5" cy="77" rx="79.5" ry="77"/>
						<g id="Group-8_1_" transform="translate(19.000000, 58.000000)">
							<g id="Group-7">
								<path id="Stroke-291" class="st18" d="M37,18.5C37,28.7,28.7,37,18.5,37S0,28.7,0,18.5S8.3,0,18.5,0S37,8.3,37,18.5z"/>
								<path id="Stroke-293" class="st19" d="M23.6,12.8c0,2.8-2.3,5.1-5.1,5.1s-5.1-2.3-5.1-5.1s2.3-5.1,5.1-5.1
									S23.6,9.9,23.6,12.8z"/>
								<path id="Stroke-295" class="st19" d="M18.5,20.4c-3.4,0-6.6,1.3-8.6,2.5c-1.4,0.8-2.3,2.3-2.3,4v0.8c0,0.9,0.7,1.7,1.5,1.7
									h18.6c0.9,0,1.5-0.7,1.5-1.7v-0.8c0-1.7-0.9-3.2-2.3-4C25.1,21.8,21.9,20.4,18.5,20.4z"/>
							</g>
							<g id="Group-7_1_" transform="translate(83.000000, 0.000000)">
								<path id="Stroke-291_1_" class="st18" d="M37,18.5C37,28.7,28.7,37,18.5,37S0,28.7,0,18.5S8.3,0,18.5,0S37,8.3,37,18.5z"/>
								<path id="Stroke-293_1_" class="st19" d="M23.6,12.8c0,2.8-2.3,5.1-5.1,5.1s-5.1-2.3-5.1-5.1s2.3-5.1,5.1-5.1
									S23.6,9.9,23.6,12.8z"/>
								<path id="Stroke-295_1_" class="st19" d="M18.5,20.4c-3.4,0-6.6,1.3-8.6,2.5c-1.4,0.8-2.3,2.3-2.3,4v0.8
									c0,0.9,0.7,1.7,1.5,1.7h18.6c0.9,0,1.5-0.7,1.5-1.7v-0.8c0-1.7-0.9-3.2-2.3-4C25.1,21.8,21.9,20.4,18.5,20.4z"/>
							</g>
						</g>
						<g id="gggggg" transform="translate(67.000000, 76.000000)">
							<g id="Group-5_1_">
								<path id="Line_1_" class="st17" d="M0.5,1.5h3"/>
								<path id="Line-Copy-2_1_" class="st17" d="M14.5,1.5h3"/>
								<path id="Line-Copy_1_" class="st17" d="M7.5,1.5h3"/>
								<path id="Line-Copy-3_1_" class="st17" d="M21.5,1.5h3"/>
							</g>
						</g>
						<path id="Stroke-520" class="st18" d="M71.9,42.4c2.3,4.6,5.1,7.3,9.7,9.7l3.4-2.5c0.4-0.4,1.1-0.6,1.6-0.4
							c1.8,0.6,3.8,0.9,5.8,0.9c0.9,0,1.6,0.7,1.6,1.6v5.6c0,0.9-0.7,1.6-1.6,1.6C77.3,59,65,46.7,65,31.6c0-0.9,0.7-1.6,1.6-1.6
							h5.6c0.9,0,1.6,0.7,1.6,1.6c0,2,0.3,3.9,0.9,5.8c0.2,0.6,0,1.2-0.4,1.6L71.9,42.4z"/>
					</g>
				</g>

					<linearGradient id="Triangle-5_1_" gradientUnits="userSpaceOnUse" x1="435.625" y1="-3.0973" x2="435.625" y2="-2.1377" gradientTransform="matrix(448 0 0 -109 -194651 141.9999)">
					<stop  offset="0" style="stop-color:#94E5E1;stop-opacity:0.5774"/>
					<stop  offset="1" style="stop-color:#FFFFFF"/>
				</linearGradient>
				<polygon id="Triangle-5" class="st20" points="509,484 733,375 285,375 				"/>
				<g>
					<rect x="21.8" y="235.6" class="st21" width="159.2" height="71.4"/>
					<text transform="matrix(1 0 0 1 36.953 249.1074)"><tspan x="0" y="0" class="st11 st1 st22">원거리의 동료에게 </tspan><tspan x="-4.3" y="24" class="st11 st1 st22">영상 통화를 겁니다. </tspan></text>
					<rect x="286" y="235.6" class="st21" width="182" height="71.4"/>
					<text transform="matrix(1 0 0 1 293.0882 249.1074)"><tspan x="0" y="0" class="st11 st1 st22">자신이 보고 있는 화면을 </tspan><tspan x="17.1" y="24" class="st11 st1 st22">동료와 공유합니다. </tspan></text>
					<rect x="547" y="235.6" class="st21" width="197" height="71.4"/>
					<text transform="matrix(1 0 0 1 551.0312 249.1074)"><tspan x="0" y="0" class="st11 st1 st22">AR 드로잉으로 동료가 보고 </tspan><tspan x="0.8" y="24" class="st11 st1 st22">있는 화면 위에 직접 필요한 </tspan><tspan x="27.6" y="48" class="st11 st1 st22">정보를 그려줍니다. </tspan></text>
					<rect x="823.2" y="235.6" class="st21" width="186.8" height="71.4"/>
					<text transform="matrix(1 0 0 1 838.167 249.1074)"><tspan x="0" y="0" class="st11 st1 st22">채팅 창을 열어 텍스트, </tspan><tspan x="12.1" y="24" class="st11 st1 st22">이미지 등의 다양한 </tspan><tspan x="3.8" y="48" class="st11 st1 st22">콘텐츠를 전송합니다. </tspan></text>
				</g>
			</g>
		</g>
	</g>
</g>
</svg>
